<?xml version="1.0" encoding="utf-8"?>
<svg xmlns="http://www.w3.org/2000/svg" xmlns:xlink="http://www.w3.org/1999/xlink">
    <symbol viewBox="0 0 480 480" id="cat" xmlns="http://www.w3.org/2000/svg">
        <path
            d="M456 .016h-16c-13.254 0-24 10.746-24 24v46.48a39.75 39.75 0 01-17.664 33.121l-78.992 53.2a104.29 104.29 0 00-1.758-10.872l10.3-2.761c4.25-1.16 6.766-5.532 5.626-9.786a8 8 0 00-9.758-5.671l-10.777 2.89A104.099 104.099 0 00268.8 78.414L239.434 5.04C238.219 1.996 235.274 0 232 0s-6.219 1.996-7.434 5.04l-23.582 58.976h-65.968L111.434 5.039C110.219 1.996 107.274 0 104 0s-6.219 1.996-7.434 5.04L67.2 78.413A104.085 104.085 0 0023 130.605l-10.777-2.886a8.012 8.012 0 00-9.801 5.691 8.013 8.013 0 005.691 9.805l10.301 2.762A104.019 104.019 0 0016 168.016c0 2.703.2 5.351.406 8H8a8 8 0 000 16h10.902a103.292 103.292 0 0010.618 27.097l-21.407 5.703a7.999 7.999 0 104.133 15.454l26.785-7.2a104.03 104.03 0 0012.375 12.856c-26.363 11.39-43.43 37.37-43.406 66.09v112c.027 24.523 16.008 46.18 39.437 53.433 23.43 7.254 48.852-1.582 62.731-21.8a7.898 7.898 0 001.832.367c22.082-.028 39.973-17.918 40-40v-40.727a120.163 120.163 0 0116 0v40.727c.027 22.082 17.918 39.972 40 40a7.898 7.898 0 001.832-.368c13.879 20.22 39.3 29.055 62.73 21.801 23.43-7.254 39.41-28.91 39.438-53.433v-112a71.64 71.64 0 00-26.09-55.336l28.8-18.801 9.052 2.402a7.87 7.87 0 002.07.278 7.996 7.996 0 007.719-5.934 7.878 7.878 0 00-2.168-7.648l83.648-54.618A135.781 135.781 0 00476 71.773c2.398-24.558 4-46.957 4-47.757 0-13.254-10.746-24-24-24zM79.727 213.946c-1.141-4.27-5.532-6.805-9.797-5.657l-24.32 6.52a87.48 87.48 0 01-10.204-22.793H72a8 8 0 000-16H32.406c-.238-2.641-.406-5.297-.406-8a87.46 87.46 0 012.04-17.887l35.89 9.598a8.049 8.049 0 002.07.289 7.998 7.998 0 007.934-6.957 7.989 7.989 0 00-5.864-8.77l-35.46-9.504a88.04 88.04 0 0138.878-43.8 7.99 7.99 0 003.551-4L104 29.55l18.176 45.441a7.997 7.997 0 007.426 5.024h76.796a7.998 7.998 0 007.426-5.024L232 29.551l22.96 57.41a7.99 7.99 0 003.552 4 88.047 88.047 0 0138.879 43.797l-35.461 9.504a8.003 8.003 0 00-5.961 8.797 8.003 8.003 0 008.031 6.957c.7 0 1.395-.094 2.07-.274l35.89-9.597a87.858 87.858 0 012.04 17.87c0 2.704-.168 5.36-.406 8H264a8 8 0 000 16h36.594a87.459 87.459 0 01-10.196 22.794l-24.32-6.52a7.998 7.998 0 00-9.797 5.656 7.998 7.998 0 005.656 9.797l17.805 4.801A87.653 87.653 0 01216 256.016h-96a87.661 87.661 0 01-63.734-27.504l17.804-4.801a7.998 7.998 0 005.657-9.766zM136 416.015a24.047 24.047 0 01-16 22.632V381.8l2.063-.68A117.68 117.68 0 01136 377.48zm64 22.632a24.047 24.047 0 01-16-22.632V377.48c4.727.934 9.395 2.157 13.977 3.657l2.023.664zm96-126.632v112c0 22.09-17.91 40-40 40s-40-17.91-40-40v-48c0-.114-.055-.207-.063-.32a8.133 8.133 0 00-.335-1.673 7.738 7.738 0 00-.387-1.351 7.438 7.438 0 00-.863-1.281 8.013 8.013 0 00-.91-1.176 20.726 20.726 0 00-2.649-1.598c-.106 0-.176-.12-.29-.16l-7.48-2.465a133.95 133.95 0 00-26.976-5.976H176a137.002 137.002 0 00-32 0 134.382 134.382 0 00-26.96 5.91l-7.513 2.48c-.113.043-.183.13-.289.16-.922.465-1.804 1-2.644 1.602-.344.36-.649.754-.914 1.176a7.29 7.29 0 00-.864 1.281c-.168.438-.296.89-.382 1.352a7.834 7.834 0 00-.336 1.671c0 .11-.067.207-.067.32v48c.016 22.098-17.89 40.024-39.992 40.04-22.098.012-40.027-17.89-40.039-39.992v-112c.023-26.043 18.047-48.614 43.441-54.399a103.286 103.286 0 0052.559 14.4h96a103.224 103.224 0 0046.703-11.2 44.607 44.607 0 013.48 1.72 39.877 39.877 0 015.122 3.089A55.778 55.778 0 01296 312.015zM460.04 70.184a119.87 119.87 0 01-53.774 88.8l-94.329 61.598-5.457-1.46a103.344 103.344 0 0010.618-27.106H328a8 8 0 000-16h-8.406v-.082l87.644-59.032A55.71 55.71 0 00432 70.496v-46.48a8 8 0 018-8h16a7.941 7.941 0 018 7.457c0 .215-1.52 22.398-3.96 46.71zm0 0"/>
        <path
            d="M120 176.016c17.672 0 32-14.328 32-32s-14.328-32-32-32-32 14.328-32 32 14.328 32 32 32zm0-48c8.836 0 16 7.164 16 16s-7.164 16-16 16-16-7.164-16-16 7.164-16 16-16zm96 48c17.672 0 32-14.328 32-32s-14.328-32-32-32-32 14.328-32 32 14.328 32 32 32zm0-48c8.836 0 16 7.164 16 16s-7.164 16-16 16-16-7.164-16-16 7.164-16 16-16zm-76.29 74.344a8.004 8.004 0 000 11.312l22.634 22.633a8.004 8.004 0 0011.312 0l22.633-22.633a8 8 0 00-11.312-11.313L168 219.336l-16.977-16.977a7.997 7.997 0 00-11.312 0zm0 0"/>
    </symbol>
    <symbol viewBox="0 0 480 480.001" id="pumpkin" xmlns="http://www.w3.org/2000/svg">
        <path d="M360 128a86.388 86.388 0 00-40 10.2 134.75 134.75 0 00-48-22.345V94.641a87.43 87.43 0 019.32-39.305l21.84-43.762A8.001 8.001 0 00296 0h-28.238A40.403 40.403 0 00232 22.121l-12.977 26.031A103.454 103.454 0 00208 94.641v21.214a134.75 134.75 0 00-48 22.344A86.388 86.388 0 00120 128C53.832 128 0 206.953 0 304s53.832 176 120 176a90.795 90.795 0 0052.695-17.793c41.735 23.723 92.875 23.723 134.61 0A90.813 90.813 0 00360 480c66.168 0 120-78.953 120-176s-53.832-176-120-176zM224 94.64a87.439 87.439 0 019.328-39.32l12.938-26.039A24.272 24.272 0 01267.762 16h15.3l-16.039 32.152A103.454 103.454 0 00256 94.641v18.32a133.684 133.684 0 00-32 0zM360 464a72.107 72.107 0 01-38.313-11.414 138.252 138.252 0 0017.075-15.082 8.004 8.004 0 00-.305-11.313 8.004 8.004 0 00-11.312.305 120 120 0 01-87.145 37.5 120 120 0 01-87.145-37.5 8 8 0 10-11.613 11.008 139.15 139.15 0 0017.07 15.082A72.176 72.176 0 01120 464c-57.344 0-104-71.777-104-160s46.656-160 104-160a69.327 69.327 0 0126.488 5.414 138.064 138.064 0 00-12.664 13.602 8.006 8.006 0 00-1.328 7.976 8.004 8.004 0 0013.809 2.031 121.1 121.1 0 0119.07-19.015l.227-.176c43.625-34.43 105.175-34.43 148.796 0l.235.176a120.967 120.967 0 0119.078 19.039 8.002 8.002 0 1012.496-10 138.37 138.37 0 00-12.695-13.598A69.275 69.275 0 01360 144c57.344 0 104 71.777 104 160s-46.656 160-104 160zm0 0"/>
        <path d="M100.512 291.344a8.001 8.001 0 009.074.746l7.477-4.32-1.215 4.527a8 8 0 005.656 9.793c25.496 6.848 52.312-5.035 64.36-28.524 12.05-23.484 6.062-52.199-14.376-68.91a7.995 7.995 0 00-9.07-.746l-7.48 4.32 1.214-4.527a8 8 0 00-5.656-9.793c-29.871-8.004-60.578 9.723-68.582 39.594-5.676 21.258 1.594 43.875 18.598 57.84zm-3.153-53.696c4.934-18.355 22.082-30.718 41.059-29.601l-3.93 14.68a8 8 0 0011.719 9l19.082-11.008a40.002 40.002 0 01-31.703 67.203l3.926-14.684a8 8 0 00-11.719-9l-19.082 11.008a40.135 40.135 0 01-9.352-37.598zM316 296.488a55.686 55.686 0 0042.488 5.602 8 8 0 005.657-9.793l-1.215-4.527 7.48 4.32a7.995 7.995 0 009.07-.746c20.434-16.711 26.426-45.426 14.375-68.91-12.05-23.489-38.867-35.372-64.359-28.524a8 8 0 00-5.656 9.793l1.215 4.527-7.477-4.32a8.001 8.001 0 00-9.074.746A56.005 56.005 0 00316 296.488zm-1.297-75.754l19.082 11.008a8 8 0 0011.719-9l-3.902-14.68a40.003 40.003 0 0131.703 67.204l-19.082-11.008a8 8 0 00-11.72 9l3.93 14.68c-16.34 1-31.636-8.055-38.62-22.86s-4.247-32.367 6.914-44.344zm121.641 98.243a7.99 7.99 0 00-5.051-4.414 7.983 7.983 0 00-6.637.98c-20.426 13.395-58.511 24.602-104.52 30.77a7.998 7.998 0 00-6.663 9.992l2.398 9.078-15.504 4.168-3.695-13.856a7.997 7.997 0 00-8.36-5.91 717.152 717.152 0 01-97.046 1.031 7.874 7.874 0 00-8.211 5.91l-3.438 12.801-15.504-4.168 1.918-7.152a7.991 7.991 0 00-1.129-6.602 7.983 7.983 0 00-5.75-3.43 353.11 353.11 0 01-107.105-25.6 8.003 8.003 0 00-11.2 5.371A33.646 33.646 0 0040 336c0 46.078 77.855 83.559 181.473 87.594A8.002 8.002 0 00232 416v-16h16v16a8.002 8.002 0 0010.527 7.594C362.145 419.559 440 382.078 440 336a41.59 41.59 0 00-3.656-17.023zM264 407.328V392a8 8 0 00-8-8h-32a8 8 0 00-8 8v15.328c-83.887-4.465-151.84-32.558-159.32-65.336a390.546 390.546 0 0091.504 21.055l-1.598 5.914c-1.152 4.266 1.379 8.66 5.644 9.809l30.961 8.32a8.004 8.004 0 009.809-5.656l3.832-14.29a732.938 732.938 0 0086.106-.914l4.046 15.204a8.006 8.006 0 009.809 5.663l30.96-8.32a8.002 8.002 0 005.645-9.793l-2.148-8.09a307.59 307.59 0 0092.695-26.398c0 .512.047 1.024.047 1.543.008 35.242-71.031 66.555-159.992 71.29zm0 0"/>
    </symbol>
    <symbol viewBox="0 0 28.3 28.3" id="square">
        <path d="M.3 30.7h27L13.8 3.8zM126.3-51.7c-8.8 0-16 7.2-16 16s7.2 16 16 16 16-7.2 16-16-7.2-16-16-16z" />
        <path d="M0 28.3h28.3L14.2 0 0 28.3zm5.3-3.2l8.9-17.7L23 25.1H5.3z" />
    </symbol>
    <symbol viewBox="0 0 28.3 28.3" id="circle">
        <circle cx="14.2" cy="14.2" r="14.2" />
    </symbol>
</svg>