<?xml version="1.0" encoding="utf-8"?>
<!-- Generator: Adobe Illustrator 23.0.1, SVG Export Plug-In . SVG Version: 6.00 Build 0)  -->
<svg version="1.1" xmlns="http://www.w3.org/2000/svg" xmlns:xlink="http://www.w3.org/1999/xlink" x="0px" y="0px"
	 viewBox="0 0 24 24" style="enable-background:new 0 0 24 24;" xml:space="preserve">
<style type="text/css">
	.st0{opacity:0.7;}
	.st1{fill:#D10000;}
</style>
<g id="close">
</g>
<g id="_x31_check_1_">
</g>
<g id="_x32_checks">
</g>
<g id="activesessions">
</g>
<g id="add">
</g>
<g id="addmember_x5F_filled">
</g>
<g id="adduser">
</g>
<g id="admin">
</g>
<g id="animals">
</g>
<g id="archive">
</g>
<g id="attach">
</g>
<g id="avatar_x5F_archivedchats">
</g>
<g id="avatar_x5F_deletedaccount">
</g>
<g id="avatar_x5F_savedmessages">
</g>
<g id="back">
</g>
<g id="camera">
</g>
<g id="cameraadd">
</g>
<g id="car">
</g>
<g id="channel">
</g>
<g id="channelviews">
</g>
<g id="chatsplaceholder">
</g>
<g id="check">
</g>
<g id="checkbox">
</g>
<g id="checkboxblock">
</g>
<g id="checkboxempty">
</g>
<g id="checkboxon">
</g>
<g id="copy">
</g>
<g id="data">
</g>
<g id="delete_x5F_filled">
</g>
<g id="delete">
</g>
<g id="deleteuser">
</g>
<g id="document">
</g>
<g id="down">
</g>
<g id="eats">
</g>
<g id="edit">
</g>
<g id="eye1">
</g>
<g id="eye2">
</g>
<g id="flag">
</g>
<g id="forward">
</g>
<g id="FullScreen">
</g>
<g id="group">
</g>
<g id="help">
</g>
<g id="info">
</g>
<g id="lamp">
</g>
<g id="language">
</g>
<g id="largepause">
</g>
<g id="largeplay">
</g>
<g id="location">
</g>
<g id="lock">
</g>
<g id="logout">
</g>
<g id="menu">
</g>
<g id="message">
</g>
<g id="microphone">
</g>
<g id="more">
</g>
<g id="mute">
</g>
<g id="newchannel">
</g>
<g id="newchat_x5F_filled">
</g>
<g id="newgroup">
</g>
<g id="newprivate">
</g>
<g id="next_x5F_svg">
</g>
<g id="pause">
</g>
<g id="permissions">
</g>
<g id="phone">
</g>
<g id="photo">
</g>
<g id="pin">
</g>
<g id="pinnedchat">
</g>
<g id="play">
</g>
<g id="radiooff">
</g>
<g id="radioon">
</g>
<g id="recent">
</g>
<g id="reply">
</g>
<g id="savedmessages">
</g>
<g id="search">
</g>
<g id="send">
</g>
<g id="send2">
</g>
<g id="sending">
</g>
<g id="sendingerror">
</g>
<g id="settings">
</g>
<g id="smallscreen">
</g>
<g id="smile">
</g>
<g id="sport">
</g>
<g id="stop">
</g>
<g id="unarchive">
	<path d="M7.5,1.5h9c1.2,0,2.3,0.5,3.1,1.4l0.1,0.2l1.5,2c0.5,0.6,0.7,1.4,0.8,2.1l0,0.3v11c0,2.2-1.8,4-4,4H6c-2.2,0-4-1.8-4-4v-11
		C2,6.7,2.2,6,2.7,5.3l0.1-0.2l1.5-2c0.7-0.9,1.8-1.5,3-1.6L7.5,1.5h9H7.5z M18,7.5H6c-1.1,0-2,0.9-2,2v9c0,1.1,0.9,2,2,2h12
		c1.1,0,2-0.9,2-2v-9C20,8.4,19.1,7.5,18,7.5z M12.7,11.3l3,3c0.4,0.4,0.4,1,0,1.4c-0.4,0.4-1,0.4-1.4,0L12,13.4l-2.3,2.3
		c-0.4,0.4-1,0.4-1.4,0c-0.4-0.4-0.4-1,0-1.4l3-3C11.7,10.9,12.3,10.9,12.7,11.3z M16.5,3.5h-9C6.9,3.5,6.4,3.7,6,4.2L5.9,4.3
		l-1,1.4C5.2,5.6,5.6,5.5,6,5.5h12c0.4,0,0.8,0.1,1.1,0.2l-1-1.4c-0.3-0.5-0.9-0.7-1.4-0.8L16.5,3.5z"/>
</g>
<g id="unlock">
</g>
<g id="unmute">
</g>
<g id="unpin">
</g>
<g id="unread">
</g>
<g id="up">
</g>
<g id="user">
</g>
<g id="username">
</g>
<g id="ramka">
</g>
<g id="download_1_">
</g>
<g id="docs">
</g>
<g id="doc_x5F_load">
</g>
<g id="ugol">
</g>
</svg>
