<?xml version="1.0" encoding="utf-8"?>
<!-- Generator: Adobe Illustrator 23.0.1, SVG Export Plug-In . SVG Version: 6.00 Build 0)  -->
<svg version="1.1" xmlns="http://www.w3.org/2000/svg" xmlns:xlink="http://www.w3.org/1999/xlink" x="0px" y="0px"
	 viewBox="0 0 24 24" style="enable-background:new 0 0 24 24;" xml:space="preserve">
<style type="text/css">
	.st0{opacity:0.7;}
	.st1{fill:#D10000;}
</style>
<g id="close">
</g>
<g id="_x31_check_1_">
</g>
<g id="_x32_checks">
</g>
<g id="activesessions">
</g>
<g id="add">
</g>
<g id="addmember_x5F_filled">
</g>
<g id="adduser">
</g>
<g id="admin">
</g>
<g id="animals">
</g>
<g id="archive">
</g>
<g id="attach">
</g>
<g id="avatar_x5F_archivedchats">
</g>
<g id="avatar_x5F_deletedaccount">
</g>
<g id="avatar_x5F_savedmessages">
</g>
<g id="back">
</g>
<g id="camera">
</g>
<g id="cameraadd">
</g>
<g id="car">
</g>
<g id="channel">
</g>
<g id="channelviews">
</g>
<g id="chatsplaceholder">
</g>
<g id="check">
</g>
<g id="checkbox">
</g>
<g id="checkboxblock">
</g>
<g id="checkboxempty">
</g>
<g id="checkboxon">
</g>
<g id="copy">
</g>
<g id="data">
	<path d="M12,2.5c4.8,0,8.8,1.7,9,4.3L21,7v10c0,2.7-4.1,4.5-9,4.5c-4.8,0-8.8-1.7-9-4.3L3,17V7C3,4.3,7.1,2.5,12,2.5z M19,17l0-2.1
		c-1.7,1-4.2,1.6-7,1.6c-2.8,0-5.3-0.6-7-1.6L5,17c0,1.2,3.1,2.5,7,2.5C15.8,19.5,18.8,18.2,19,17L19,17l0-2.1L19,17z M12,11.5
		c-2.8,0-5.3-0.6-7-1.6L5,12c0,1.2,3.1,2.5,7,2.5c3.8,0,6.8-1.3,7-2.4l0-0.1l0-2.1C17.3,10.9,14.8,11.5,12,11.5z M12,4.5
		C8.1,4.5,5,5.8,5,7s3.1,2.5,7,2.5s7-1.3,7-2.5S15.9,4.5,12,4.5z"/>
</g>
<g id="delete_x5F_filled">
</g>
<g id="delete">
</g>
<g id="deleteuser">
</g>
<g id="document">
</g>
<g id="down">
</g>
<g id="eats">
</g>
<g id="edit">
</g>
<g id="eye1">
</g>
<g id="eye2">
</g>
<g id="flag">
</g>
<g id="forward">
</g>
<g id="FullScreen">
</g>
<g id="group">
</g>
<g id="help">
</g>
<g id="info">
</g>
<g id="lamp">
</g>
<g id="language">
</g>
<g id="largepause">
</g>
<g id="largeplay">
</g>
<g id="location">
</g>
<g id="lock">
</g>
<g id="logout">
</g>
<g id="menu">
</g>
<g id="message">
</g>
<g id="microphone">
</g>
<g id="more">
</g>
<g id="mute">
</g>
<g id="newchannel">
</g>
<g id="newchat_x5F_filled">
</g>
<g id="newgroup">
</g>
<g id="newprivate">
</g>
<g id="next_x5F_svg">
</g>
<g id="pause">
</g>
<g id="permissions">
</g>
<g id="phone">
</g>
<g id="photo">
</g>
<g id="pin">
</g>
<g id="pinnedchat">
</g>
<g id="play">
</g>
<g id="radiooff">
</g>
<g id="radioon">
</g>
<g id="recent">
</g>
<g id="reply">
</g>
<g id="savedmessages">
</g>
<g id="search">
</g>
<g id="send">
</g>
<g id="send2">
</g>
<g id="sending">
</g>
<g id="sendingerror">
</g>
<g id="settings">
</g>
<g id="smallscreen">
</g>
<g id="smile">
</g>
<g id="sport">
</g>
<g id="stop">
</g>
<g id="unarchive">
</g>
<g id="unlock">
</g>
<g id="unmute">
</g>
<g id="unpin">
</g>
<g id="unread">
</g>
<g id="up">
</g>
<g id="user">
</g>
<g id="username">
</g>
<g id="ramka">
</g>
<g id="download_1_">
</g>
<g id="docs">
</g>
<g id="doc_x5F_load">
</g>
<g id="ugol">
</g>
</svg>
