<?xml version="1.0" encoding="utf-8"?>
<!-- Generator: Adobe Illustrator 23.0.1, SVG Export Plug-In . SVG Version: 6.00 Build 0)  -->
<svg version="1.1" xmlns="http://www.w3.org/2000/svg" xmlns:xlink="http://www.w3.org/1999/xlink" x="0px" y="0px"
	 viewBox="0 0 24 24" style="enable-background:new 0 0 24 24;" xml:space="preserve">
<style type="text/css">
	.st0{stroke:#000000;stroke-width:0.5;stroke-miterlimit:10;}
</style>
<g id="_menu">
</g>
<g id="dop">
</g>
<g id="zoom">
</g>
<g id="ramka">
</g>
<g id="my">
</g>
<g id="group">
</g>
<g id="channal">
</g>
<g id="contacts">
	<g>
		<path d="M12,4.5c1.7,0,3,1.3,3,3s-1.3,3-3,3s-3-1.3-3-3S10.3,4.5,12,4.5 M12,3C9.5,3,7.5,5,7.5,7.5S9.5,12,12,12s4.5-2,4.5-4.5
			S14.5,3,12,3L12,3z"/>
	</g>
	<g>
		<path d="M19,19.8c-0.2,0-0.5-0.1-0.6-0.3l-2-2.7c-0.5-0.6-1.2-1-2-1H9.6c-0.8,0-1.5,0.4-2,1l-2,2.7c-0.2,0.3-0.7,0.4-1,0.1
			c-0.3-0.2-0.4-0.7-0.1-1l2-2.7c0.7-1,1.9-1.6,3.2-1.6h4.8c1.2,0,2.4,0.6,3.2,1.6l2,2.7c0.2,0.3,0.2,0.8-0.1,1
			C19.3,19.7,19.2,19.8,19,19.8z"/>
	</g>
</g>
<g id="settings">
</g>
<g id="clip">
</g>
<g id="Слой_11">
</g>
<g id="send">
</g>
<g id="smile">
</g>
<g id="info">
</g>
<g id="kolokol">
</g>
<g id="kolokolminus">
</g>
<g id="img">
</g>
<g id="video">
</g>
<g id="file">
</g>
<g id="link">
</g>
<g id="close">
</g>
<g id="back">
</g>
<g id="lock">
</g>
<g id="moon">
</g>
<g id="ugol">
</g>
<g id="menu2">
</g>
</svg>
