<?xml version="1.0" encoding="utf-8"?>
<!-- Generator: Adobe Illustrator 23.0.1, SVG Export Plug-In . SVG Version: 6.00 Build 0)  -->
<svg version="1.1" id="Слой_1" xmlns="http://www.w3.org/2000/svg" xmlns:xlink="http://www.w3.org/1999/xlink" x="0px" y="0px"
	 viewBox="0 0 24 24" style="enable-background:new 0 0 24 24;" xml:space="preserve">
<style type="text/css">
	.st0{fill:none;}
</style>
<g>
	<polygon class="st0" points="-44,0 -20,0 -20,24 -44,24 	"/>
	<path d="M-32,12c3.9,0,6.7,1,8.3,3.2c0.4,0.6,0.7,1.3,0.7,2v1.1c0,1.5-1.2,2.7-2.7,2.7h-12.6c-1.5,0-2.7-1.2-2.7-2.7v-1.1
		c0-0.7,0.2-1.4,0.7-2C-38.7,13-35.9,12-32,12z M-32,14c-3.3,0-5.6,0.8-6.7,2.4c-0.2,0.2-0.3,0.5-0.3,0.8v1.1c0,0.4,0.3,0.7,0.7,0.7
		h12.6c0.4,0,0.7-0.3,0.7-0.7v-1.1c0-0.3-0.1-0.6-0.3-0.8C-26.4,14.8-28.7,14-32,14z M-32,2c2.2,0,4,1.8,4,4s-1.8,4-4,4s-4-1.8-4-4
		S-34.2,2-32,2z M-32,4c-1.1,0-2,0.9-2,2s0.9,2,2,2s2-0.9,2-2S-30.9,4-32,4z"/>
</g>
</svg>
