<?xml version="1.0" encoding="utf-8"?>
<!-- Generator: Adobe Illustrator 23.0.1, SVG Export Plug-In . SVG Version: 6.00 Build 0)  -->
<svg version="1.1" xmlns="http://www.w3.org/2000/svg" xmlns:xlink="http://www.w3.org/1999/xlink" x="0px" y="0px"
	 viewBox="0 0 269.8 155.9" style="enable-background:new 0 0 269.8 155.9;" xml:space="preserve">
<style type="text/css">
	.st0{fill:#41B4E6;}
	.st1{fill:#D8168A;}
	.st2{display:none;fill:#41B4E6;}
	.st3{opacity:0.11;}
	.st4{fill:#FFFFFF;}
	.st5{opacity:0.83;fill:#C5D1D3;}
	.st6{opacity:0.79;fill:#95A3A5;}
	.st7{display:none;fill:#6023AF;}
	.st8{fill:#55319B;}
	.st9{display:none;}
</style>
<g id="Capa_1">
	<g>
		<ellipse class="st0" cx="-1089" cy="21.2" rx="389" ry="378.6"/>
	</g>
	<ellipse class="st1" cx="-1089" cy="21" rx="389" ry="378.8"/>
	
		<image style="display:none;overflow:visible;opacity:0.5;" width="98" height="96" xlink:href="CD9984E0.jpg"  transform="matrix(2.9761 0 0 2.9761 -1104.7803 -247.9934)">
	</image>
	<path class="st2" d="M-967.8,3.6"/>
	<g>
		<g class="st3">
			<polygon class="st4" points="-1097,-113.5 -1337.1,78.1 -1060.7,-113.5 			"/>
			<polygon class="st4" points="-886.3,-6.6 -1049.8,135.8 -867.7,3 			"/>
		</g>
		<g>
			<path class="st4" d="M-984.8-68.7l107.6,72.9c4.9,3.3,12,1,13.4-4.3l52.8-202.4c1.6-6.1-5.1-11.3-11.6-9l-271.2,95.7
				c-6.1,2.1-5.8,9.9,0.4,11.7l74.4,22.1l151.8-91.4c1.8-1.1,3.8,1.1,2.2,2.5L-984.8-68.7z"/>
			<path class="st5" d="M-1019-81.9L-993.7,0l8.9-68.7L-864-171.7c1.5-1.2-0.4-3.3-2-2.3L-1019-81.9z"/>
			<polygon class="st6" points="-946.4,-42.7 -993.7,0 -984.8,-68.7 			"/>
		</g>
	</g>
	
		<image style="display:none;overflow:visible;opacity:0.36;" width="190" height="153" xlink:href="CD9984E1.jpg"  transform="matrix(3.0092 0 0 2.7268 -1374.8428 -272.7535)">
	</image>
</g>
<g id="Слой_2">
	<g>
		<g class="st3">
			<polygon class="st4" points="-287.7,-24.4 -368.7,40.2 -275.5,-24.4 			"/>
			<polygon class="st4" points="-216.7,11.7 -271.8,59.7 -210.4,14.9 			"/>
		</g>
		<g>
			<path class="st4" d="M-249.9-9.3l36.3,24.6c1.6,1.1,4,0.3,4.5-1.5l17.8-68.2c0.5-2.1-1.7-3.8-3.9-3l-91.4,32.3
				c-2,0.7-2,3.3,0.1,4l25.1,7.5l51.2-30.8c0.6-0.4,1.3,0.4,0.7,0.8L-249.9-9.3z"/>
			<path class="st5" d="M-261.4-13.7l8.6,27.6l3-23.2l40.7-34.7c0.5-0.4-0.1-1.1-0.7-0.8L-261.4-13.7z"/>
			<polygon class="st6" points="-237,-0.5 -252.9,13.9 -249.9,-9.3 			"/>
		</g>
	</g>
</g>
<g id="Слой_3">
	<rect x="-54" y="195.5" class="st7" width="250" height="150"/>
	
		<image style="display:none;overflow:visible;" width="244" height="157" xlink:href="CD9984E7.jpg"  transform="matrix(0.9999 0 0 0.9999 -53.956 192.5495)">
	</image>
	<g>
		<path class="st8" d="M-54,345.5h195c0,0-4.8-15.2-16.7-18.1c-11.9-2.9-21.3,2.1-21.3,2.1s-8.4-15.3-23.9-18.8S48,314.5,48,314.5
			s-3-8.1-8.9-12.9c-5.9-4.8-17.1-6.1-17.1-6.1s-8.9-11.7-15.8-16.2c-6.9-4.5-23.2-8.8-23.2-8.8s-4.2-15.2-11.2-23.2
			S-54,231.5-54,231.5"/>
		<g>
			<path class="st8" d="M4.6,266.2L4.6,266.2c-3.3-1-5.3-4.5-4.3-7.9l3.1-10.6c1-3.3,4.5-5.3,7.9-4.3h0c3.3,1,5.3,4.5,4.3,7.9
				l-3.1,10.6C11.4,265.2,7.9,267.1,4.6,266.2z"/>
			<g>
				<g>
					<path class="st8" d="M2.4,273.6c-9.3-2.8-10.2-13-9.3-18.1c0.1-0.8,0.9-1.4,1.7-1.2c0.8,0.1,1.4,0.9,1.2,1.7
						c-0.1,0.5-1.9,12.1,7.2,14.7c9.1,2.7,14-8.3,14.1-8.4c0.3-0.8,1.2-1.1,2-0.8c0.8,0.3,1.1,1.2,0.8,2
						C18,268.2,11.7,276.4,2.4,273.6z"/>
				</g>
				<g>
					<line class="st8" x1="2.8" y1="272.2" x2="0.6" y2="279.5"/>
					<path class="st8" d="M0.2,281c-0.8-0.2-1.2-1.1-1-1.9l2.2-7.3c0.2-0.8,1.1-1.2,1.9-1s1.2,1.1,1,1.9l-2.2,7.3
						C1.8,280.7,1,281.2,0.2,281z"/>
				</g>
			</g>
		</g>
		<path class="st8" d="M76.4,257.5l-28.4-4c-2.3-0.3-4.4,1.3-4.7,3.5l-4,28.4c-0.3,2.3,1.3,4.4,3.5,4.7l28.4,4
			c2.3,0.3,4.4-1.3,4.7-3.5l4-28.4C80.3,259.9,78.7,257.8,76.4,257.5z M69.5,267.2l-6.4-0.8c-0.4,0-0.8,0.2-0.8,0.6l-1.7,13.2
			l-0.1,0c-0.5,3-3.3,5.2-6.3,4.9c-3.4-0.3-5.9-3.6-5.1-7.1c0.5-2.5,2.8-4.5,5.4-4.6c1.9-0.1,3.5,0.7,4.6,2l1.7-12.8
			c0.1-0.4,0.4-0.7,0.8-0.6l0.8,0.1l0,0l7.6,0.9c0.6,0.1,1.1,0.7,1,1.3l-0.2,1.8C70.7,266.8,70.1,267.3,69.5,267.2z"/>
		<g>
			<path class="st8" d="M160.9,317.4c-2.9,1.8-3.8,5.5-2,8.4s5.5,3.8,8.4,2c2.9-1.8,3.8-5.5,2-8.4S163.8,315.7,160.9,317.4z"/>
			<path class="st8" d="M170.5,308.6l-3.7,2.3l-3-2.3c-0.8-0.6-1.9-0.7-2.8-0.1l-8.1,5c-0.9,0.5-1.3,1.5-1.2,2.5l0.6,3.7l-0.6,0.4
				l-0.4-0.7c-0.2-0.3-0.6-0.4-0.9-0.2L149,320c-0.3,0.2-0.4,0.6-0.2,0.9l0.4,0.7l-0.5,0.3c-1.1,0.7-1.5,2.2-0.8,3.3l7.8,12.7
				c0.7,1.2,2.2,1.5,3.4,0.8l21.8-13.3c1.2-0.7,1.5-2.2,0.8-3.4l-7.8-12.7C173.1,308.2,171.6,307.9,170.5,308.6z M168.8,330.4
				c-4.3,2.6-9.9,1.3-12.6-3c-2.6-4.3-1.3-9.9,3-12.6c4.3-2.6,9.9-1.3,12.6,3C174.5,322.1,173.1,327.8,168.8,330.4z M172.3,314.6
				c-1,0.6-2.2,0.3-2.8-0.7c-0.6-1-0.3-2.2,0.7-2.8c1-0.6,2.2-0.3,2.8,0.7C173.5,312.8,173.2,314,172.3,314.6z M150.5,318.2"/>
		</g>
		<path class="st8" d="M-27.5,203.7c2,0.4,3.8,1.7,4.7,3.6c0.8,0.1,1.6,0,2.4-0.3c2.8-1,4.3-4.2,3.3-7c-1-2.8-4.2-4.3-7-3.3
			C-27,197.8-28.5,200.9-27.5,203.7z M-27,215.5c2.8-1,4.3-4.2,3.3-7c-1-2.8-4.2-4.3-7-3.3s-4.3,4.2-3.3,7
			C-33,215.1-29.8,216.5-27,215.5z M-24.7,215l-4.4,1.6c-3.6,1.3-5.5,5.4-4.2,9l2,5.3l0,0.1l0.4,0c3.9-0.2,7-0.9,9.5-1.8
			c4.8-1.8,7.1-4.2,7.3-4.3l0.3-0.3l0,0l-2-5.3C-17,215.6-21,213.7-24.7,215z M-18.1,206.6l-4.3,1.6c0.6,1.7,0.4,3.6-0.3,5.1
			c3.6-0.2,7,1.9,8.3,5.4l0.6,1.6c4.2-1.7,6.2-3.8,6.4-4l0.3-0.3l0,0l-2-5.3C-10.4,207.1-14.5,205.2-18.1,206.6z M-38,213.5
			c1-0.4,1.8-1,2.4-1.8c-0.4-1.7,0-3.5,0.9-4.9c0-0.1-0.1-0.2-0.1-0.3c-1-2.8-4.2-4.3-7-3.3c-2.8,1-4.3,4.2-3.3,7
			C-43.9,213.1-40.8,214.5-38,213.5z M-31.6,216.5c-1.6-0.7-2.9-2-3.6-3.7c-0.2,0-0.3,0.1-0.5,0.2l-4.4,1.6c-3.6,1.3-5.5,5.4-4.2,9
			l2,5.3l0,0.1l0.4,0c3.1-0.2,5.7-0.7,7.9-1.3l-0.6-1.6C-35.7,222.6-34.5,218.7-31.6,216.5z"/>
		<g>
			<path class="st8" d="M109.4,287.7c-5.6,1.2-9.2,6.9-8,12.5l2.2,10c0.4,1.9,2.3,3.1,4.2,2.7l13.5-3c1.9-0.4,3.1-2.3,2.7-4.2
				l-2.2-10C120.7,290.1,115.1,286.5,109.4,287.7z M116.8,298.5l-9.6,2.1c-1.2,0.3-2.4-0.5-2.7-1.7c-0.8-3.6,1.5-7.2,5.1-7.9l1-0.2
				c3.6-0.8,7.2,1.5,7.9,5.1C118.8,297,118,298.2,116.8,298.5z"/>
			<path class="st8" d="M129.1,304.8L129.1,304.8c-1.5,0.3-3-0.6-3.3-2.1l-1.4-6.2c-0.3-1.5,0.6-3,2.1-3.3h0c1.5-0.3,3,0.6,3.3,2.1
				l1.4,6.2C131.5,303,130.6,304.5,129.1,304.8z"/>
			<path class="st8" d="M98.8,311.5L98.8,311.5c-1.5,0.3-3-0.6-3.3-2.1l-1.4-6.2c-0.3-1.5,0.6-3,2.1-3.3h0c1.5-0.3,3,0.6,3.3,2.1
				l1.4,6.2C101.2,309.7,100.2,311.2,98.8,311.5z"/>
		</g>
	</g>
</g>
<g id="Слой_4" class="st9">
	
		<image style="display:inline;overflow:visible;" width="272" height="158" xlink:href="CD9984E2.jpg"  transform="matrix(0.9999 0 0 0.9999 -2.1638 -2.1121)">
	</image>
</g>
<g id="Слой_5">
	<g>
		<path class="st4" d="M41.5,155.9c0,0,0.1-15,17.5-28.6s45.3,3.7,45.3,3.7s2.9-26.2,25.8-38.4s46.7-2.8,46.7-2.8
			s12.1-15.7,27.3-21.8s35.6-3.6,35.6-3.6s7.6-13.5,15-17.4s15-4.4,15-4.4v113.1H41.5z"/>
		<g>
			<path class="st4" d="M29,121l-0.7,0.1l1.9,9.1c0.3,1.4-0.1,2.8-1.5,3.1l-13.3,2.8l0.1,0.4c0.3,1.2,1.7,2.3,2.9,2l10.1-2.2
				l4.5,1.9l-1.2-2.7l0.1,0c1.2-0.3,1.5-1.6,1.2-2.9l-2.1-10C31,121.6,30.2,120.8,29,121z"/>
			<path class="st4" d="M22.4,115.7l-17.1,3.6c-1.5,0.3-2.9,2.2-2.6,3.6l2.4,11.3c0.3,1.3,1.9,1.9,3.4,1.8l-0.1,4l5.1-5l12.5-2.7
				c1.5-0.3,2.7-1.6,2.4-3l-2-9.2l-0.5-2.2C25.6,116.5,23.9,115.4,22.4,115.7z"/>
		</g>
		<g>
			<g>
				<path class="st4" d="M95.6,87.2l-5.9-9.1c-0.1-0.2-0.4-0.4-0.6-0.4l-13.4-3.1c-0.5-0.1-1,0.2-1.2,0.7l-6.1,26.1
					c-0.1,0.5,0.2,1,0.7,1.1l21,4.9c0.5,0.1,1-0.2,1.2-0.7l4.4-18.8C95.8,87.7,95.7,87.4,95.6,87.2z M88.2,80.8l2.2,3.4l1.2,1.8
					c0.4,0.6-0.1,1.3-0.8,1.1l-3-0.7c-0.4-0.1-0.7-0.5-0.6-0.9L88.2,80.8L88.2,80.8z M87.9,94.4l-11.4-2.6c-0.9-0.2-1.4-1.1-1.2-1.9
					v0c0.2-0.9,1.1-1.4,1.9-1.2l11.4,2.6c0.9,0.2,1.4,1.1,1.2,1.9v0C89.6,94.1,88.8,94.6,87.9,94.4z M86.4,100.8L75,98.1
					c-0.9-0.2-1.4-1.1-1.2-1.9l0,0c0.2-0.9,1.1-1.4,1.9-1.2l11.4,2.6c0.9,0.2,1.4,1.1,1.2,1.9l0,0C88.2,100.4,87.3,101,86.4,100.8z"
					/>
			</g>
		</g>
		<path class="st4" d="M213.4,39.8c-0.3-0.5-0.7-0.8-1.3-0.9l-0.7-0.2l0.9-4.1c0.6-2.6,0.2-5.1-1.3-7.4c-1.4-2.3-3.5-3.8-6.1-4.3
			c-2.6-0.6-5.1-0.2-7.4,1.3c-2.3,1.4-3.8,3.5-4.3,6.1l-0.9,4.1l-0.7-0.2c-0.6-0.1-1.1,0-1.6,0.3c-0.5,0.3-0.8,0.7-0.9,1.3
			l-2.8,12.3c-0.1,0.6,0,1.1,0.3,1.6c0.3,0.5,0.7,0.8,1.3,0.9l20.5,4.7c0.6,0.1,1.1,0,1.6-0.3c0.5-0.3,0.8-0.7,0.9-1.3l2.8-12.3
			C213.8,40.9,213.7,40.3,213.4,39.8z M199.6,46.6c-1.1-0.3-1.9-1.4-1.6-2.5c0.3-1.1,1.4-1.9,2.5-1.6c1.1,0.3,1.9,1.4,1.6,2.5
			C201.8,46.1,200.7,46.8,199.6,46.6z M207.3,37.8l-10.9-2.5l0.9-4.1c0.3-1.5,1.2-2.7,2.5-3.5c1.3-0.8,2.7-1.1,4.2-0.7
			c1.5,0.3,2.7,1.2,3.5,2.5c0.8,1.3,1.1,2.7,0.7,4.2L207.3,37.8z"/>
		<g>
			<g>
				<path class="st4" d="M243.6,2.9c-6.3,1.7-10.1,8.1-8.4,14.4c2.1,7.8,15.3,16.6,15.9,17c0.5,0.3,1.2,0.2,1.5-0.4
					c0.3-0.6,7.5-14.8,5.4-22.6C256.3,5,249.9,1.3,243.6,2.9z M248.1,20.1c-3.2,0.8-6.4-1.1-7.3-4.2c-0.8-3.2,1.1-6.4,4.2-7.3
					c3.2-0.8,6.4,1.1,7.3,4.2C253.1,16,251.3,19.3,248.1,20.1z"/>
			</g>
		</g>
		<g>
			<path class="st4" d="M159.1,62.8l-5.6-19c-0.7-2.4-3.3-3.8-5.7-3.1l-19,5.6c-2.4,0.7-3.8,3.3-3.1,5.7l5.6,19
				c0.7,2.4,3.3,3.8,5.7,3.1l19-5.6C158.4,67.8,159.8,65.2,159.1,62.8z M145.5,49.6c0.9-0.3,2,0.4,2.3,1.6c0.3,1.2-0.1,2.3-1.1,2.6
				c-0.9,0.3-2-0.4-2.3-1.6C144,51,144.5,49.9,145.5,49.6z M134.8,56.3c-0.3-1.1,0-2.1,0.8-2.3s1.6,0.5,1.9,1.5
				c0.3,1.1,0,2.1-0.8,2.3S135.1,57.3,134.8,56.3z M153.2,62.8c-0.2,1-0.7,1.7-1.6,2.2c-0.6,0.4-1.3,0.5-2,0.5
				c-0.4,0-0.7-0.1-1.1-0.2c-1.2-0.4-2.2-1.3-2.9-2.1c-1.7,1-3.7,1.2-5.3,1.2c-1.9,0-3.3-0.3-3.4-0.4c-0.5-0.1-0.9-0.7-0.7-1.2
				c0.1-0.5,0.7-0.9,1.2-0.7c0,0,4.1,1,7.1-0.6c0,0,0,0,0,0l0.3-0.2c0.3-0.2,0.6-0.4,0.9-0.7c3.2-3,4.4-5.5,4.4-5.5
				c0.2-0.5,0.8-0.7,1.3-0.5c0.5,0.2,0.7,0.8,0.5,1.3c0,0-0.2,0.4-0.6,1C152.3,58.4,153.6,60.8,153.2,62.8z"/>
			<path class="st4" d="M147.3,62.1c0.5,0.6,1.1,1.2,1.8,1.4c0.5,0.2,1,0.1,1.5-0.2c0.4-0.2,0.6-0.5,0.6-0.9
				c0.2-0.9-0.4-2.3-1.1-3.5C149.5,59.8,148.5,60.9,147.3,62.1z"/>
		</g>
	</g>
</g>
</svg>
