<?xml version="1.0" encoding="utf-8"?>
<!-- Generator: Adobe Illustrator 23.0.1, SVG Export Plug-In . SVG Version: 6.00 Build 0)  -->
<svg version="1.1" id="Слой_1" xmlns="http://www.w3.org/2000/svg" xmlns:xlink="http://www.w3.org/1999/xlink" x="0px" y="0px"
	 viewBox="0 0 7 9" style="enable-background:new 0 0 7 9;" xml:space="preserve">
<style type="text/css">
	.st0{display:none;}
	.st1{display:inline;fill:#FFFFFF;}
	.st2{display:none;fill:#FFFFFF;stroke:#000000;stroke-miterlimit:10;}
	.st3{fill:#872222;}
</style>
<g class="st0">
	<polygon class="st1" points="6.9,0.2 0,9 7,9 	"/>
</g>
<polygon class="st2" points="0,9 0,9 0,9 "/>
<path class="st3" d="M0,9l1.5-0.5C4,7.6,5.8,5.5,6.3,3L7,0v9H0z"/>
</svg>
